{
"type": "FeatureCollection",
"name": "perimetreqaa",
"crs": { "type": "name", "properties": { "name": "urn:ogc:def:crs:EPSG::3857" } },
"features": [
{ "type": "Feature", "properties": { "sect_adm": "11", "st_perimeter_shape": 3565.3264966719553, "geo_point_2d": { "lon": 2.3705574763104496, "lat": 48.864301834235398 } }, "geometry": { "type": "Polygon", "coordinates": [ [ [ 263228.733117, 6252261.618238 ], [ 263321.328361, 6252370.163376 ], [ 263645.097396, 6252280.376917 ], [ 263483.13339, 6252596.153006 ], [ 263536.940109, 6252622.373077 ], [ 263561.636654, 6252634.601716 ], [ 263578.032161, 6252643.108589 ], [ 263608.991955, 6252619.815517 ], [ 263652.10943, 6252600.429606 ], [ 263735.751872, 6252584.589739 ], [ 263932.389748, 6252547.504893 ], [ 264097.671425, 6252514.998159 ], [ 264299.083197, 6252098.976802 ], [ 264453.31588, 6251781.776328 ], [ 264604.062489, 6251477.264815 ], [ 264334.491367, 6251271.427478 ], [ 264116.838818, 6251474.740998 ], [ 264080.828604, 6251459.354953 ], [ 264091.518827, 6251376.899404 ], [ 264084.575005, 6251239.948885 ], [ 264075.073754, 6251172.432894 ], [ 263855.492009, 6251084.779386 ], [ 263757.713165, 6251324.909292 ], [ 263533.652906, 6251230.061027 ], [ 263467.117823, 6251650.46639 ], [ 263465.573375, 6251657.436227 ], [ 263463.755213, 6251664.194008 ], [ 263460.176836, 6251676.003022 ], [ 263228.733117, 6252261.618238 ] ] ] } },
{ "type": "Feature", "properties": { "sect_adm": "6", "st_perimeter_shape": 3395.9064501859252, "geo_point_2d": { "lon": 2.3365861577704026, "lat": 48.854274140300326 } }, "geometry": { "type": "Polygon", "coordinates": [ [ [ 259956.825734, 6250783.436309 ], [ 260085.855439, 6250791.853673 ], [ 260290.852536, 6250714.655651 ], [ 260541.645762, 6250488.494774 ], [ 260574.100338, 6250453.930907 ], [ 260721.708887, 6250306.884013 ], [ 260979.070948, 6250110.97395 ], [ 260907.658269, 6249911.336507 ], [ 260832.693977, 6249664.142258 ], [ 260529.5408, 6249787.366876 ], [ 260388.159774, 6249686.65706 ], [ 260276.860287, 6249688.052529 ], [ 260017.553973, 6249654.247699 ], [ 259787.488283, 6249642.817425 ], [ 259702.302283, 6249661.261124 ], [ 259694.716125, 6249685.49648 ], [ 259725.22546, 6249895.772829 ], [ 259719.688736, 6249895.692457 ], [ 259714.152013, 6249895.612083 ], [ 259598.843353, 6249865.947466 ], [ 259334.585885, 6249791.862933 ], [ 259198.369204, 6249756.459415 ], [ 259297.593753, 6249889.96976 ], [ 259305.222265, 6249910.524197 ], [ 259422.580433, 6250195.023795 ], [ 259452.39763, 6250287.515053 ], [ 259468.049257, 6250327.271921 ], [ 259512.346109, 6250419.810407 ], [ 259560.636381, 6250516.002418 ], [ 259737.981747, 6250845.985401 ], [ 259956.825734, 6250783.436309 ] ] ] } },
{ "type": "Feature", "properties": { "sect_adm": "Paris Centre", "st_perimeter_shape": 3865.328735000744, "geo_point_2d": { "lon": 2.359540405835467, "lat": 48.855589271566387 } }, "geometry": { "type": "Polygon", "coordinates": [ [ [ 261762.61723, 6250365.605934 ], [ 261667.295416, 6250430.180186 ], [ 261815.831966, 6250861.208224 ], [ 261983.727802, 6251341.933892 ], [ 262353.903754, 6251173.061535 ], [ 262649.545028, 6250877.837265 ], [ 262927.155703, 6250694.236188 ], [ 263217.137995, 6250554.516574 ], [ 263657.612209, 6250435.767716 ], [ 263709.594631, 6250121.142308 ], [ 263730.012156, 6249981.513028 ], [ 263713.60337, 6249927.851611 ], [ 262855.150182, 6249555.776095 ], [ 262819.339954, 6249695.72354 ], [ 262769.826177, 6249768.264945 ], [ 262377.98113, 6249982.580703 ], [ 261854.787744, 6250300.879214 ], [ 261762.61723, 6250365.605934 ] ] ] } },
{ "type": "Feature", "properties": { "sect_adm": "18", "st_perimeter_shape": 1928.996544370774, "geo_point_2d": { "lon": 2.3534197829069683, "lat": 48.886133322180129 } }, "geometry": { "type": "Polygon", "coordinates": [ [ [ 262382.745957, 6255358.801765 ], [ 262261.229365, 6255234.088944 ], [ 261570.534916, 6255160.913165 ], [ 261544.217061, 6255162.833696 ], [ 261550.419325, 6255459.035013 ], [ 261574.692551, 6255479.422035 ], [ 261609.275272, 6255533.202609 ], [ 261682.789615, 6255659.169388 ], [ 261719.566655, 6255759.053013 ], [ 261778.065885, 6255954.448954 ], [ 261915.012991, 6255970.981773 ], [ 262287.286362, 6256027.001341 ], [ 262312.666663, 6255866.743008 ], [ 262382.745957, 6255358.801765 ] ] ] } },
{ "type": "Feature", "properties": { "sect_adm": "15", "st_perimeter_shape": 3346.4928669702813, "geo_point_2d": { "lon": 2.2902338420332069, "lat": 48.845768669341247 } }, "geometry": { "type": "Polygon", "coordinates": [ [ [ 255535.341822, 6248976.973721 ], [ 255912.980119, 6248760.489474 ], [ 255719.567107, 6248521.619606 ], [ 255499.58814, 6248203.469033 ], [ 255068.876822, 6247894.070113 ], [ 254967.97065, 6248071.267511 ], [ 254929.391023, 6248120.343892 ], [ 254870.690367, 6248162.219404 ], [ 254515.982789, 6248390.026827 ], [ 254354.352652, 6248491.501714 ], [ 254244.353929, 6248563.693928 ], [ 254057.825521, 6248693.003345 ], [ 254275.353134, 6249105.511612 ], [ 254325.548001, 6249250.380333 ], [ 254458.97846, 6249398.024427 ], [ 254575.035977, 6249538.624936 ], [ 255228.609089, 6249154.765473 ], [ 255535.341822, 6248976.973721 ] ] ] } },
{ "type": "Feature", "properties": { "sect_adm": "9", "st_perimeter_shape": 2992.3641140637387, "geo_point_2d": { "lon": 2.3310633862154235, "lat": 48.880140004282971 } }, "geometry": { "type": "Polygon", "coordinates": [ [ [ 259842.731335, 6254000.903496 ], [ 259831.79442, 6253897.521643 ], [ 259649.758628, 6253911.687367 ], [ 259460.994582, 6253866.587782 ], [ 259083.318363, 6253794.499151 ], [ 259023.410092, 6253783.981162 ], [ 259024.781555, 6253830.779532 ], [ 259035.069381, 6254183.014234 ], [ 259060.633305, 6255113.653384 ], [ 259088.242366, 6255120.544692 ], [ 259102.668047, 6255125.209447 ], [ 259133.59539, 6255135.21004 ], [ 259167.412797, 6255152.096158 ], [ 259209.580846, 6255193.709319 ], [ 259277.616349, 6255260.849259 ], [ 259312.389923, 6255295.164729 ], [ 259646.237418, 6255176.019343 ], [ 259652.74859, 6255172.850653 ], [ 260159.186541, 6254941.930258 ], [ 260187.480567, 6254929.857373 ], [ 260191.6089, 6254928.795242 ], [ 260185.175037, 6254900.696196 ], [ 260177.245586, 6254871.090736 ], [ 260174.560733, 6254861.067652 ], [ 260168.385763, 6254862.330996 ], [ 260162.207379, 6254842.967676 ], [ 260014.59823, 6254682.019119 ], [ 259966.915231, 6254565.696909 ], [ 259942.331999, 6254505.253162 ], [ 259923.353608, 6254457.474722 ], [ 259909.224157, 6254405.73413 ], [ 259885.700583, 6254322.409217 ], [ 259879.432893, 6254297.536988 ], [ 259866.187845, 6254225.041461 ], [ 259855.466902, 6254159.366992 ], [ 259849.276544, 6254093.814574 ], [ 259842.731335, 6254000.903496 ] ] ] } },
{ "type": "Feature", "properties": { "sect_adm": "7", "st_perimeter_shape": 2720.8530623932534, "geo_point_2d": { "lon": 2.3277627735757593, "lat": 48.854933252881153 } }, "geometry": { "type": "Polygon", "coordinates": [ [ [ 259198.369204, 6249756.459415 ], [ 259195.956354, 6249755.862641 ], [ 259137.618279, 6249741.432135 ], [ 259061.955329, 6249722.715372 ], [ 259025.507983, 6249686.015697 ], [ 259000.239308, 6249661.168588 ], [ 258848.272836, 6249565.608024 ], [ 258772.922792, 6249518.507556 ], [ 258706.35626, 6249475.400149 ], [ 258628.403781, 6249742.602177 ], [ 258647.042278, 6250018.361699 ], [ 258667.617562, 6250194.295159 ], [ 258708.649533, 6250269.379753 ], [ 258853.229344, 6250464.761213 ], [ 259076.33748, 6250649.853534 ], [ 259270.561213, 6251075.798522 ], [ 259306.129715, 6251060.197255 ], [ 259737.388821, 6250846.253522 ], [ 259737.981747, 6250845.985401 ], [ 259736.04044, 6250842.360131 ], [ 259735.730184, 6250841.780633 ], [ 259735.419778, 6250841.200981 ], [ 259732.396984, 6250835.555952 ], [ 259680.548514, 6250738.728869 ], [ 259627.256324, 6250639.743995 ], [ 259560.636381, 6250516.002418 ], [ 259501.950466, 6250399.102743 ], [ 259468.049257, 6250327.271921 ], [ 259461.957201, 6250311.797244 ], [ 259452.39763, 6250287.515053 ], [ 259425.385492, 6250202.326562 ], [ 259422.580433, 6250195.023795 ], [ 259417.893989, 6250183.663126 ], [ 259305.222265, 6249910.524197 ], [ 259297.593753, 6249889.96976 ], [ 259221.867763, 6249788.077789 ], [ 259198.369204, 6249756.459415 ] ] ] } },
{ "type": "Feature", "properties": { "sect_adm": "12", "st_perimeter_shape": 2646.4536984592005, "geo_point_2d": { "lon": 2.3892007047806962, "lat": 48.84246167504206 } }, "geometry": { "type": "Polygon", "coordinates": [ [ [ 265678.398708, 6248027.391508 ], [ 265640.773914, 6248132.361906 ], [ 265561.083955, 6248265.367377 ], [ 265325.099909, 6248575.461091 ], [ 265407.001445, 6248649.157699 ], [ 265551.789097, 6248765.005563 ], [ 265739.055396, 6248915.598942 ], [ 266047.017836, 6248515.248757 ], [ 266473.380612, 6247983.850434 ], [ 266700.029548, 6247688.853918 ], [ 266585.285995, 6247667.10145 ], [ 265966.140888, 6247585.597594 ], [ 265897.919869, 6247668.578604 ], [ 265678.398708, 6248027.391508 ] ] ] } },
{ "type": "Feature", "properties": { "sect_adm": "13", "st_perimeter_shape": 3118.5695246033447, "geo_point_2d": { "lon": 2.367839195132075, "lat": 48.830938993651955 } }, "geometry": { "type": "Polygon", "coordinates": [ [ [ 262835.193963, 6246195.094512 ], [ 262669.888795, 6246424.257788 ], [ 262724.247645, 6246451.720385 ], [ 262823.009016, 6246501.658382 ], [ 263129.528721, 6246657.31678 ], [ 263724.611878, 6246960.828307 ], [ 263995.383356, 6246489.387426 ], [ 264328.282387, 6246263.937646 ], [ 264451.97504, 6246056.092165 ], [ 264067.572636, 6245740.068566 ], [ 263981.140482, 6245671.88951 ], [ 263437.157999, 6245560.891939 ], [ 263412.947004, 6245555.961404 ], [ 263357.730142, 6245693.547498 ], [ 263316.837813, 6245773.949566 ], [ 263271.0386, 6245875.683105 ], [ 262942.631068, 6246084.360932 ], [ 262835.193963, 6246195.094512 ] ] ] } },
{ "type": "Feature", "properties": { "sect_adm": "19", "st_perimeter_shape": 1963.5502089924619, "geo_point_2d": { "lon": 2.37330071742947, "lat": 48.880219693236363 } }, "geometry": { "type": "Polygon", "coordinates": [ [ [ 263844.071903, 6254999.183501 ], [ 263850.598753, 6254999.235714 ], [ 263857.000042, 6254998.852121 ], [ 263993.376567, 6255052.277924 ], [ 264338.198836, 6254798.21468 ], [ 264596.985494, 6254604.776835 ], [ 264779.865939, 6254337.297135 ], [ 264466.815737, 6254282.498215 ], [ 264303.031865, 6254255.078395 ], [ 263858.617611, 6254184.742954 ], [ 263852.452691, 6254918.928704 ], [ 263851.933834, 6254972.872348 ], [ 263844.071903, 6254999.183501 ] ] ] } },
{ "type": "Feature", "properties": { "sect_adm": "5", "st_perimeter_shape": 2730.9694433593513, "geo_point_2d": { "lon": 2.3601688666954086, "lat": 48.843104365309308 } }, "geometry": { "type": "Polygon", "coordinates": [ [ [ 262991.572906, 6249045.586759 ], [ 263385.163618, 6248590.193622 ], [ 263287.378823, 6248505.975888 ], [ 263283.92006, 6248502.442514 ], [ 263279.074038, 6248497.18119 ], [ 263275.574833, 6248493.111696 ], [ 263265.525735, 6248478.826644 ], [ 263261.572865, 6248471.332453 ], [ 263257.710698, 6248461.569869 ], [ 263255.169217, 6248453.684395 ], [ 263252.003972, 6248440.792724 ], [ 263247.080991, 6248426.694977 ], [ 263236.969267, 6248405.994327 ], [ 263215.097122, 6248361.215573 ], [ 263183.661976, 6248296.861358 ], [ 263079.245026, 6248083.09389 ], [ 262916.157272, 6247749.712753 ], [ 262403.569526, 6247502.103524 ], [ 262388.757775, 6247494.948676 ], [ 262334.914086, 6247707.096147 ], [ 262325.78691, 6247724.086216 ], [ 262309.019892, 6247772.567725 ], [ 262263.934561, 6247953.378958 ], [ 262173.063968, 6248344.459185 ], [ 262160.748405, 6248375.952509 ], [ 262155.043539, 6248388.977501 ], [ 262407.015547, 6248586.709217 ], [ 262991.572906, 6249045.586759 ] ] ] } },
{ "type": "Feature", "properties": { "sect_adm": "20", "st_perimeter_shape": 3068.0030530684962, "geo_point_2d": { "lon": 2.4034733301162596, "lat": 48.872689886955413 } }, "geometry": { "type": "Polygon", "coordinates": [ [ [ 267233.120177, 6252705.54237 ], [ 267231.051505, 6252676.481076 ], [ 267221.158661, 6252669.744766 ], [ 267045.467431, 6252950.581146 ], [ 267080.957641, 6252965.111092 ], [ 266934.867052, 6253220.11997 ], [ 266933.430692, 6253255.816826 ], [ 266932.554953, 6253754.660791 ], [ 267047.931894, 6253759.360457 ], [ 267091.835669, 6253774.254844 ], [ 267409.947032, 6253839.699033 ], [ 267423.911239, 6253842.572546 ], [ 267448.670502, 6253847.666794 ], [ 267449.785664, 6253847.900236 ], [ 267450.414395, 6253848.031501 ], [ 267450.509259, 6253848.051096 ], [ 267450.62867, 6253848.076205 ], [ 267451.668835, 6253848.292182 ], [ 267452.587457, 6253848.483946 ], [ 267571.026259, 6253901.515996 ], [ 267572.016003, 6253901.958994 ], [ 267572.321866, 6253902.095874 ], [ 267573.125107, 6253902.454042 ], [ 267755.141758, 6253982.375002 ], [ 267942.200593, 6254058.81558 ], [ 267964.391352, 6253997.558969 ], [ 268053.225514, 6253742.630454 ], [ 268132.547266, 6253438.104788 ], [ 268143.370948, 6253311.385176 ], [ 268173.53554, 6253074.584986 ], [ 268140.76799, 6253072.743552 ], [ 268147.537446, 6252979.324027 ], [ 268062.842406, 6252918.005477 ], [ 267932.252858, 6252821.104693 ], [ 267923.151048, 6252825.450112 ], [ 267858.885335, 6252773.705895 ], [ 267825.293739, 6252745.581567 ], [ 267781.00365, 6252710.480871 ], [ 267776.249154, 6252707.118803 ], [ 267771.136921, 6252704.208043 ], [ 267591.669139, 6252542.963699 ], [ 267589.964482, 6252541.432173 ], [ 267544.678131, 6252491.887145 ], [ 267458.379195, 6252514.990558 ], [ 267355.132286, 6252495.883831 ], [ 267323.821945, 6252549.567313 ], [ 267314.444588, 6252562.877162 ], [ 267311.955808, 6252567.253992 ], [ 267233.120177, 6252705.54237 ] ] ] } },
{ "type": "Feature", "properties": { "sect_adm": "16", "st_perimeter_shape": 3466.4510918473034, "geo_point_2d": { "lon": 2.2641323737041739, "lat": 48.841570863815143 } }, "geometry": { "type": "Polygon", "coordinates": [ [ [ 252570.289894, 6247986.746856 ], [ 252395.493505, 6247713.036081 ], [ 252297.429239, 6247541.883345 ], [ 252213.032161, 6247449.898261 ], [ 252008.133911, 6247156.156349 ], [ 251322.219078, 6247298.851093 ], [ 251270.261489, 6247380.255863 ], [ 251274.75027, 6247507.595188 ], [ 251397.556447, 6247947.65693 ], [ 251540.545106, 6248256.818516 ], [ 251781.026146, 6248677.590172 ], [ 252316.229499, 6248682.592145 ], [ 252764.49524, 6248869.65445 ], [ 252879.676595, 6248706.824909 ], [ 252930.84876, 6248550.531112 ], [ 252570.289894, 6247986.746856 ] ] ] } },
{ "type": "Feature", "properties": { "sect_adm": "8", "st_perimeter_shape": 3526.4034402232282, "geo_point_2d": { "lon": 2.3186249341747871, "lat": 48.877827499378697 } }, "geometry": { "type": "Polygon", "coordinates": [ [ [ 258715.897977, 6253777.704077 ], [ 258747.910243, 6253747.763114 ], [ 258993.992967, 6253772.139335 ], [ 258999.804419, 6253737.965425 ], [ 259014.701776, 6253650.366644 ], [ 259033.566552, 6253539.439126 ], [ 259041.96859, 6253490.05068 ], [ 259046.368965, 6253464.181954 ], [ 259014.709707, 6253477.726363 ], [ 258776.206425, 6253525.314352 ], [ 258750.621239, 6253530.690557 ], [ 258687.482134, 6253543.932649 ], [ 258559.760998, 6253569.215687 ], [ 258408.777713, 6253600.501381 ], [ 258306.030377, 6253621.790398 ], [ 258273.523237, 6253633.126905 ], [ 258239.418487, 6253640.499479 ], [ 258188.133475, 6253646.205812 ], [ 258118.23156, 6253659.659663 ], [ 258092.00031, 6253664.708179 ], [ 258088.017534, 6253665.543471 ], [ 258084.039267, 6253666.418985 ], [ 257965.565454, 6253691.449723 ], [ 257853.095236, 6253715.210426 ], [ 257793.431703, 6253731.784717 ], [ 257620.881451, 6253774.391468 ], [ 257435.323173, 6253905.409058 ], [ 257393.213514, 6254283.489795 ], [ 257571.607723, 6254420.12372 ], [ 257384.679653, 6254655.873945 ], [ 257683.61958, 6254712.91315 ], [ 257908.87245, 6254756.031007 ], [ 258352.773127, 6254885.269378 ], [ 258458.300535, 6254595.743667 ], [ 258715.897977, 6253777.704077 ] ] ] } },
{ "type": "Feature", "properties": { "sect_adm": "17", "st_perimeter_shape": 2990.1228521852499, "geo_point_2d": { "lon": 2.2896325775254502, "lat": 48.87773312252007 } }, "geometry": { "type": "Polygon", "coordinates": [ [ [ 255043.149312, 6254420.957412 ], [ 255397.583441, 6254293.342992 ], [ 255807.008256, 6254151.539868 ], [ 255591.04013, 6253698.817277 ], [ 255458.027612, 6253723.404942 ], [ 255427.866999, 6253714.916011 ], [ 255354.429928, 6253694.246154 ], [ 255301.440375, 6253649.96522 ], [ 255245.808369, 6253585.370454 ], [ 255232.821799, 6253591.646744 ], [ 255114.906967, 6253648.717639 ], [ 255048.597958, 6253680.805503 ], [ 254975.909437, 6253715.980028 ], [ 254918.23667, 6253743.773251 ], [ 254857.026397, 6253773.255101 ], [ 254832.40187, 6253785.115407 ], [ 254818.410232, 6253791.951001 ], [ 254793.113303, 6253804.30976 ], [ 254699.04893, 6253850.263748 ], [ 254609.369073, 6253894.059959 ], [ 254381.393865, 6254002.839354 ], [ 254285.621964, 6254049.222921 ], [ 254249.11503, 6254066.71875 ], [ 254238.319494, 6254071.907781 ], [ 254229.50021, 6254076.150589 ], [ 254186.861113, 6254097.142906 ], [ 254181.523266, 6254099.770744 ], [ 253954.83329, 6254212.634117 ], [ 254020.088047, 6254369.972162 ], [ 254268.979423, 6254692.451204 ], [ 254746.985981, 6254530.258737 ], [ 255043.149312, 6254420.957412 ] ] ] } },
{ "type": "Feature", "properties": { "sect_adm": "10", "st_perimeter_shape": 2162.750768307375, "geo_point_2d": { "lon": 2.3547576311070144, "lat": 48.87630232620252 } }, "geometry": { "type": "Polygon", "coordinates": [ [ [ 262040.911553, 6254277.680447 ], [ 262091.334863, 6254274.87187 ], [ 262381.851928, 6254405.516454 ], [ 262402.860243, 6254392.600858 ], [ 262346.603626, 6254198.812263 ], [ 262321.986685, 6254065.29689 ], [ 262305.947834, 6253931.462833 ], [ 262643.679256, 6253839.357831 ], [ 262557.588334, 6253581.090105 ], [ 262535.292699, 6253507.424765 ], [ 262187.467462, 6253535.996515 ], [ 261698.480948, 6253697.906894 ], [ 261681.713737, 6253702.244128 ], [ 261729.233287, 6254000.514041 ], [ 261742.012065, 6254107.350288 ], [ 261710.561893, 6254171.734423 ], [ 261913.723072, 6254250.939185 ], [ 262014.315078, 6254293.898448 ], [ 262040.911553, 6254277.680447 ] ] ] } },
{ "type": "Feature", "properties": { "sect_adm": "14", "st_perimeter_shape": 2944.5100688999969, "geo_point_2d": { "lon": 2.3247678627745576, "lat": 48.834248111494681 } }, "geometry": { "type": "Polygon", "coordinates": [ [ [ 259310.326652, 6246200.429411 ], [ 259144.979468, 6246265.759618 ], [ 259055.560906, 6246301.088293 ], [ 259037.47888, 6246308.260256 ], [ 258999.089178, 6246323.528169 ], [ 258876.446829, 6246371.139755 ], [ 258852.025473, 6246373.76687 ], [ 258844.935707, 6246372.68314 ], [ 258861.681891, 6246308.166187 ], [ 258318.267527, 6246479.352034 ], [ 257899.123864, 6246879.759361 ], [ 258555.052416, 6247401.271779 ], [ 259456.409678, 6246908.019987 ], [ 259625.391349, 6246804.946168 ], [ 259636.493509, 6246776.416804 ], [ 259587.148916, 6246688.745496 ], [ 259465.913389, 6246473.662653 ], [ 259407.810491, 6246370.787676 ], [ 259407.8081, 6246370.783549 ], [ 259373.222345, 6246309.546433 ], [ 259363.433215, 6246292.425617 ], [ 259310.326652, 6246200.429411 ] ] ] } }
]
}
